%!PS-Adobe-3.0
%%DocumentNeededResources: font Helvetica
%%+ font Helvetica-Bold
%%+ font Helvetica-Oblique
%%+ font Helvetica-BoldOblique
%%+ font Symbol
%%DocumentMedia: letter 612 792 0 () ()
%%Title: R Graphics Output
%%Creator: R Software
%%Pages: (atend)
%%Orientation: Landscape
%%BoundingBox: 18 18 594 774
%%EndComments
%%BeginProlog
/bp  { gs sRGB 612.00 0 translate 90 rotate gs } def
% begin .ps.prolog
/gs  { gsave } bind def
/gr  { grestore } bind def
/ep  { showpage gr gr } bind def
/m   { moveto } bind def
/l  { rlineto } bind def
/np  { newpath } bind def
/cp  { closepath } bind def
/f   { fill } bind def
/o   { stroke } bind def
/c   { newpath 0 360 arc } bind def
/r   { 4 2 roll moveto 1 copy 3 -1 roll exch 0 exch rlineto 0 rlineto -1 mul 0 exch rlineto closepath } bind def
/p1  { stroke } bind def
/p2  { gsave bg fill grestore newpath } bind def
/p3  { gsave bg fill grestore stroke } bind def
/p6  { gsave bg eofill grestore newpath } bind def
/p7  { gsave bg eofill grestore stroke } bind def
/t   { 5 -2 roll moveto gsave rotate
       1 index stringwidth pop
       mul neg 0 rmoveto show grestore } bind def
/ta  { 4 -2 roll moveto gsave rotate show } bind def
/tb  { 2 -1 roll 0 rmoveto show } bind def
/cl  { grestore gsave newpath 3 index 3 index moveto 1 index
       4 -1 roll lineto  exch 1 index lineto lineto
       closepath clip newpath } bind def
/rgb { setrgbcolor } bind def
/s   { scalefont setfont } bind def
% end   .ps.prolog
/sRGB { [ /CIEBasedABC
          << /DecodeLMN
               [ { dup 0.03928 le
                        {12.92321 div}
                        {0.055 add 1.055 div 2.4 exp }
                     ifelse
                 } bind dup dup
               ]
             /MatrixLMN [0.412457 0.212673 0.019334
                         0.357576 0.715152 0.119192
                         0.180437 0.072175 0.950301]
             /WhitePoint [0.9505 1.0 1.0890]
           >>
         ] setcolorspace } bind def
/srgb { setcolor } bind def
% begin encoding
/WinAnsiEncoding [
 /.notdef /.notdef /.notdef /.notdef /.notdef /.notdef /.notdef /.notdef
 /.notdef /.notdef /.notdef /.notdef /.notdef /.notdef /.notdef /.notdef
 /.notdef /.notdef /.notdef /.notdef /.notdef /.notdef /.notdef /.notdef
 /.notdef /.notdef /.notdef /.notdef /.notdef /.notdef /.notdef /.notdef
 /space /exclam /quotedbl /numbersign /dollar /percent /ampersand /quoteright
 /parenleft /parenright /asterisk /plus /comma /minus /period /slash
 /zero /one /two /three /four /five /six /seven
 /eight /nine /colon /semicolon /less /equal /greater /question
 /at /A /B /C /D /E /F /G
 /H /I /J /K /L /M /N /O
 /P /Q /R /S /T /U /V /W
 /X /Y /Z /bracketleft /backslash /bracketright /asciicircum /underscore
 /grave /a /b /c /d /e /f /g
 /h /i /j /k /l /m /n /o
 /p /q /r /s /t /u /v /w
 /x /y /z /braceleft /bar /braceright /asciitilde /.notdef
 /Euro /.notdef /quotesinglbase /florin /quotedblbase /ellipsis /dagger /daggerdbl
 /circumflex /perthousand /Scaron /guilsinglleft /OE /.notdef /Zcaron /.notdef
 /.notdef /quoteleft /quoteright /quotedblleft /quotedblright /bullet /endash /emdash
 /tilde /trademark /scaron /guilsinglright /oe /.notdef /zcaron /Ydieresis
 /space /exclamdown /cent /sterling /currency /yen /brokenbar /section
 /dieresis /copyright /ordfeminine /guillemotleft /logicalnot /hyphen /registered /macron
 /degree /plusminus /twosuperior /threesuperior /acute /mu /paragraph /periodcentered
 /cedilla /onesuperior /ordmasculine /guillemotright /onequarter /onehalf /threequarters /questiondown
 /Agrave /Aacute /Acircumflex /Atilde /Adieresis /Aring /AE /Ccedilla
 /Egrave /Eacute /Ecircumflex /Edieresis /Igrave /Iacute /Icircumflex /Idieresis
 /Eth /Ntilde /Ograve /Oacute /Ocircumflex /Otilde /Odieresis /multiply
 /Oslash /Ugrave /Uacute /Ucircumflex /Udieresis /Yacute /Thorn /germandbls
 /agrave /aacute /acircumflex /atilde /adieresis /aring /ae /ccedilla
 /egrave /eacute /ecircumflex /edieresis /igrave /iacute /icircumflex /idieresis
 /eth /ntilde /ograve /oacute /ocircumflex /otilde /odieresis /divide
 /oslash /ugrave /uacute /ucircumflex /udieresis /yacute /thorn /ydieresis
]
 def
% end encoding
%%IncludeResource: font Helvetica
/Helvetica findfont
dup length dict begin
  {1 index /FID ne {def} {pop pop} ifelse} forall
  /Encoding WinAnsiEncoding def
  currentdict
  end
/Font1 exch definefont pop
%%IncludeResource: font Helvetica-Bold
/Helvetica-Bold findfont
dup length dict begin
  {1 index /FID ne {def} {pop pop} ifelse} forall
  /Encoding WinAnsiEncoding def
  currentdict
  end
/Font2 exch definefont pop
%%IncludeResource: font Helvetica-Oblique
/Helvetica-Oblique findfont
dup length dict begin
  {1 index /FID ne {def} {pop pop} ifelse} forall
  /Encoding WinAnsiEncoding def
  currentdict
  end
/Font3 exch definefont pop
%%IncludeResource: font Helvetica-BoldOblique
/Helvetica-BoldOblique findfont
dup length dict begin
  {1 index /FID ne {def} {pop pop} ifelse} forall
  /Encoding WinAnsiEncoding def
  currentdict
  end
/Font4 exch definefont pop
%%IncludeResource: font Symbol
/Symbol findfont
dup length dict begin
  {1 index /FID ne {def} {pop pop} ifelse} forall
  currentdict
  end
/Font5 exch definefont pop
%%EndProlog
%%Page: 1 1
bp
18.00 18.00 774.00 594.00 cl
18.00 18.00 774.00 594.00 cl
108.24 18.00 683.76 594.00 cl
/bg { 0 0 0 srgb } def
1 1 1 srgb
1.06 setlinewidth
[] 0 setdash
1 setlinecap
1 setlinejoin
10.00 setmiterlimit
108.24 18.00 575.52 576.00 r p3
18.00 18.00 774.00 594.00 cl
152.24 48.10 669.36 565.22 cl
/bg { 0 0 0 srgb } def
1 1 1 srgb
1.06 setlinewidth
[] 0 setdash
1 setlinecap
1 setlinejoin
10.00 setmiterlimit
152.24 48.10 517.12 517.12 r p3
0.2000 0.2000 0.2000 srgb
0.64 setlinewidth
[] 0 setdash
0 setlinecap
1.00 setmiterlimit
np
410.80 306.66 m
0 7.13 l
0 7.14 l
0 7.13 l
0 7.13 l
0 7.13 l
0 7.14 l
0 7.13 l
0 7.13 l
0 7.14 l
0 7.13 l
0 7.13 l
0 7.13 l
0 7.14 l
0 7.13 l
0 7.13 l
0 7.13 l
0 7.14 l
0 7.13 l
0 7.13 l
0 7.13 l
0 7.14 l
0 7.13 l
0 7.13 l
0 7.13 l
0 7.14 l
0 7.13 l
0 7.13 l
0 7.14 l
0 7.13 l
0 0 l
o
np
410.80 306.66 m
3.49 6.22 l
3.49 6.22 l
3.48 6.23 l
3.49 6.22 l
3.49 6.22 l
3.49 6.22 l
3.49 6.22 l
3.48 6.22 l
3.49 6.23 l
3.49 6.22 l
3.49 6.22 l
3.49 6.22 l
3.48 6.22 l
3.49 6.23 l
3.49 6.22 l
3.49 6.22 l
3.48 6.22 l
3.49 6.22 l
3.49 6.22 l
3.49 6.23 l
3.49 6.22 l
3.48 6.22 l
3.49 6.22 l
3.49 6.22 l
3.49 6.22 l
3.49 6.23 l
3.48 6.22 l
3.49 6.22 l
3.49 6.22 l
0 0 l
o
np
410.80 306.66 m
6.04 3.80 l
6.04 3.79 l
6.04 3.80 l
6.03 3.80 l
6.04 3.79 l
6.04 3.80 l
6.04 3.80 l
6.04 3.80 l
6.03 3.79 l
6.04 3.80 l
6.04 3.80 l
6.04 3.79 l
6.04 3.80 l
6.04 3.80 l
6.03 3.79 l
6.04 3.80 l
6.04 3.80 l
6.04 3.79 l
6.04 3.80 l
6.03 3.80 l
6.04 3.79 l
6.04 3.80 l
6.04 3.80 l
6.04 3.79 l
6.04 3.80 l
6.03 3.80 l
6.04 3.79 l
6.04 3.80 l
6.04 3.80 l
0 0 l
o
np
410.80 306.66 m
7.05 1.11 l
7.04 1.10 l
7.05 1.10 l
7.05 1.11 l
7.04 1.10 l
7.05 1.10 l
7.05 1.11 l
7.05 1.10 l
7.04 1.11 l
7.05 1.10 l
7.05 1.10 l
7.04 1.11 l
7.05 1.10 l
7.05 1.11 l
7.04 1.10 l
7.05 1.10 l
7.05 1.11 l
7.04 1.10 l
7.05 1.11 l
7.05 1.10 l
7.04 1.10 l
7.05 1.11 l
7.05 1.10 l
7.04 1.10 l
7.05 1.11 l
7.05 1.10 l
7.04 1.11 l
7.05 1.10 l
7.05 1.10 l
0 0 l
o
np
410.80 306.66 m
6.94 -1.67 l
6.93 -1.67 l
6.93 -1.67 l
6.94 -1.67 l
6.93 -1.67 l
6.94 -1.67 l
6.93 -1.68 l
6.93 -1.67 l
6.94 -1.67 l
6.93 -1.67 l
6.94 -1.67 l
6.93 -1.67 l
6.94 -1.67 l
6.93 -1.67 l
6.93 -1.67 l
6.94 -1.67 l
6.93 -1.67 l
6.94 -1.68 l
6.93 -1.67 l
6.93 -1.67 l
6.94 -1.67 l
6.93 -1.67 l
6.94 -1.67 l
6.93 -1.67 l
6.94 -1.67 l
6.93 -1.67 l
6.93 -1.67 l
6.94 -1.67 l
6.93 -1.68 l
0 0 l
o
np
410.80 306.66 m
5.86 -4.07 l
5.86 -4.07 l
5.85 -4.07 l
5.86 -4.07 l
5.86 -4.07 l
5.85 -4.07 l
5.86 -4.07 l
5.86 -4.07 l
5.86 -4.07 l
5.85 -4.07 l
5.86 -4.07 l
5.86 -4.07 l
5.85 -4.07 l
5.86 -4.07 l
5.86 -4.07 l
5.86 -4.07 l
5.85 -4.08 l
5.86 -4.07 l
5.86 -4.07 l
5.86 -4.07 l
5.85 -4.07 l
5.86 -4.07 l
5.86 -4.07 l
5.85 -4.07 l
5.86 -4.07 l
5.86 -4.07 l
5.86 -4.07 l
5.85 -4.07 l
5.86 -4.07 l
0 0 l
o
np
410.80 306.66 m
4.10 -5.83 l
4.11 -5.84 l
4.10 -5.83 l
4.10 -5.84 l
4.10 -5.83 l
4.10 -5.84 l
4.10 -5.84 l
4.11 -5.83 l
4.10 -5.84 l
4.10 -5.83 l
4.10 -5.84 l
4.10 -5.83 l
4.11 -5.84 l
4.10 -5.83 l
4.10 -5.84 l
4.10 -5.83 l
4.10 -5.84 l
4.10 -5.83 l
4.11 -5.84 l
4.10 -5.83 l
4.10 -5.84 l
4.10 -5.83 l
4.10 -5.84 l
4.11 -5.83 l
4.10 -5.84 l
4.10 -5.83 l
4.10 -5.84 l
4.10 -5.83 l
4.11 -5.84 l
0 0 l
o
np
410.80 306.66 m
2.02 -6.84 l
2.01 -6.84 l
2.02 -6.84 l
2.01 -6.85 l
2.02 -6.84 l
2.01 -6.84 l
2.02 -6.84 l
2.02 -6.84 l
2.01 -6.85 l
2.02 -6.84 l
2.01 -6.84 l
2.02 -6.84 l
2.01 -6.84 l
2.02 -6.85 l
2.01 -6.84 l
2.02 -6.84 l
2.02 -6.84 l
2.01 -6.84 l
2.02 -6.85 l
2.01 -6.84 l
2.02 -6.84 l
2.01 -6.84 l
2.02 -6.84 l
2.01 -6.85 l
2.02 -6.84 l
2.02 -6.84 l
2.01 -6.84 l
2.02 -6.84 l
2.01 -6.85 l
0 0 l
o
np
410.80 306.66 m
-0.10 -7.13 l
-0.09 -7.13 l
-0.10 -7.13 l
-0.10 -7.14 l
-0.09 -7.13 l
-0.10 -7.13 l
-0.10 -7.13 l
-0.09 -7.13 l
-0.10 -7.14 l
-0.09 -7.13 l
-0.10 -7.13 l
-0.10 -7.13 l
-0.09 -7.13 l
-0.10 -7.14 l
-0.10 -7.13 l
-0.09 -7.13 l
-0.10 -7.13 l
-0.10 -7.13 l
-0.09 -7.14 l
-0.10 -7.13 l
-0.10 -7.13 l
-0.09 -7.13 l
-0.10 -7.13 l
-0.10 -7.14 l
-0.09 -7.13 l
-0.10 -7.13 l
-0.10 -7.13 l
-0.09 -7.13 l
-0.10 -7.14 l
0 0 l
o
np
410.80 306.66 m
-2.13 -6.81 l
-2.13 -6.80 l
-2.12 -6.81 l
-2.13 -6.81 l
-2.13 -6.81 l
-2.13 -6.80 l
-2.13 -6.81 l
-2.13 -6.81 l
-2.12 -6.81 l
-2.13 -6.81 l
-2.13 -6.80 l
-2.13 -6.81 l
-2.13 -6.81 l
-2.13 -6.81 l
-2.13 -6.80 l
-2.12 -6.81 l
-2.13 -6.81 l
-2.13 -6.81 l
-2.13 -6.80 l
-2.13 -6.81 l
-2.13 -6.81 l
-2.12 -6.81 l
-2.13 -6.81 l
-2.13 -6.80 l
-2.13 -6.81 l
-2.13 -6.81 l
-2.13 -6.81 l
-2.12 -6.80 l
-2.13 -6.81 l
0 0 l
o
np
410.80 306.66 m
-3.91 -5.96 l
-3.92 -5.96 l
-3.91 -5.97 l
-3.91 -5.96 l
-3.92 -5.96 l
-3.91 -5.97 l
-3.92 -5.96 l
-3.91 -5.96 l
-3.91 -5.96 l
-3.92 -5.97 l
-3.91 -5.96 l
-3.92 -5.96 l
-3.91 -5.97 l
-3.91 -5.96 l
-3.92 -5.96 l
-3.91 -5.96 l
-3.92 -5.97 l
-3.91 -5.96 l
-3.91 -5.96 l
-3.92 -5.97 l
-3.91 -5.96 l
-3.92 -5.96 l
-3.91 -5.96 l
-3.91 -5.97 l
-3.92 -5.96 l
-3.91 -5.96 l
-3.92 -5.97 l
-3.91 -5.96 l
-3.91 -5.96 l
0 0 l
o
np
410.80 306.66 m
-5.39 -4.67 l
-5.40 -4.66 l
-5.39 -4.67 l
-5.40 -4.66 l
-5.39 -4.67 l
-5.39 -4.67 l
-5.40 -4.66 l
-5.39 -4.67 l
-5.40 -4.67 l
-5.39 -4.66 l
-5.40 -4.67 l
-5.39 -4.67 l
-5.39 -4.66 l
-5.40 -4.67 l
-5.39 -4.67 l
-5.40 -4.66 l
-5.39 -4.67 l
-5.40 -4.67 l
-5.39 -4.66 l
-5.39 -4.67 l
-5.40 -4.67 l
-5.39 -4.66 l
-5.40 -4.67 l
-5.39 -4.67 l
-5.40 -4.66 l
-5.39 -4.67 l
-5.39 -4.66 l
-5.40 -4.67 l
-5.39 -4.67 l
0 0 l
o
np
410.80 306.66 m
-6.46 -3.03 l
-6.45 -3.03 l
-6.46 -3.03 l
-6.46 -3.03 l
-6.45 -3.03 l
-6.46 -3.03 l
-6.46 -3.03 l
-6.45 -3.03 l
-6.46 -3.03 l
-6.46 -3.03 l
-6.45 -3.03 l
-6.46 -3.03 l
-6.46 -3.03 l
-6.46 -3.03 l
-6.45 -3.03 l
-6.46 -3.03 l
-6.46 -3.03 l
-6.45 -3.04 l
-6.46 -3.03 l
-6.46 -3.03 l
-6.45 -3.03 l
-6.46 -3.03 l
-6.46 -3.03 l
-6.45 -3.03 l
-6.46 -3.03 l
-6.46 -3.03 l
-6.46 -3.03 l
-6.45 -3.03 l
-6.46 -3.03 l
0 0 l
o
np
410.80 306.66 m
-6.99 -1.43 l
-6.98 -1.44 l
-6.99 -1.44 l
-6.99 -1.43 l
-6.98 -1.44 l
-6.99 -1.43 l
-6.98 -1.44 l
-6.99 -1.44 l
-6.99 -1.43 l
-6.98 -1.44 l
-6.99 -1.43 l
-6.99 -1.44 l
-6.98 -1.44 l
-6.99 -1.43 l
-6.99 -1.44 l
-6.98 -1.44 l
-6.99 -1.43 l
-6.99 -1.44 l
-6.98 -1.43 l
-6.99 -1.44 l
-6.99 -1.44 l
-6.98 -1.43 l
-6.99 -1.44 l
-6.99 -1.43 l
-6.98 -1.44 l
-6.99 -1.44 l
-6.99 -1.43 l
-6.98 -1.44 l
-6.99 -1.43 l
0 0 l
o
np
410.80 306.66 m
-7.13 0.12 l
-7.13 0.13 l
-7.13 0.12 l
-7.14 0.13 l
-7.13 0.12 l
-7.13 0.12 l
-7.13 0.13 l
-7.13 0.12 l
-7.13 0.12 l
-7.13 0.13 l
-7.14 0.12 l
-7.13 0.13 l
-7.13 0.12 l
-7.13 0.12 l
-7.13 0.13 l
-7.13 0.12 l
-7.14 0.12 l
-7.13 0.13 l
-7.13 0.12 l
-7.13 0.12 l
-7.13 0.13 l
-7.13 0.12 l
-7.14 0.13 l
-7.13 0.12 l
-7.13 0.12 l
-7.13 0.13 l
-7.13 0.12 l
-7.13 0.12 l
-7.13 0.13 l
0 0 l
o
np
410.80 306.66 m
-6.95 1.61 l
-6.95 1.61 l
-6.95 1.61 l
-6.94 1.61 l
-6.95 1.61 l
-6.95 1.60 l
-6.95 1.61 l
-6.95 1.61 l
-6.95 1.61 l
-6.95 1.61 l
-6.95 1.61 l
-6.94 1.61 l
-6.95 1.61 l
-6.95 1.61 l
-6.95 1.60 l
-6.95 1.61 l
-6.95 1.61 l
-6.95 1.61 l
-6.95 1.61 l
-6.95 1.61 l
-6.94 1.61 l
-6.95 1.61 l
-6.95 1.61 l
-6.95 1.60 l
-6.95 1.61 l
-6.95 1.61 l
-6.95 1.61 l
-6.95 1.61 l
-6.94 1.61 l
0 0 l
o
np
410.80 306.66 m
-6.53 2.86 l
-6.54 2.86 l
-6.53 2.86 l
-6.53 2.87 l
-6.54 2.86 l
-6.53 2.86 l
-6.53 2.86 l
-6.54 2.86 l
-6.53 2.86 l
-6.54 2.86 l
-6.53 2.86 l
-6.53 2.86 l
-6.54 2.87 l
-6.53 2.86 l
-6.53 2.86 l
-6.54 2.86 l
-6.53 2.86 l
-6.54 2.86 l
-6.53 2.86 l
-6.53 2.86 l
-6.54 2.86 l
-6.53 2.86 l
-6.53 2.87 l
-6.54 2.86 l
-6.53 2.86 l
-6.53 2.86 l
-6.54 2.86 l
-6.53 2.86 l
-6.54 2.86 l
0 0 l
o
np
410.80 306.66 m
-5.97 3.91 l
-5.97 3.90 l
-5.97 3.90 l
-5.97 3.91 l
-5.97 3.90 l
-5.97 3.91 l
-5.96 3.90 l
-5.97 3.90 l
-5.97 3.91 l
-5.97 3.90 l
-5.97 3.91 l
-5.97 3.90 l
-5.97 3.90 l
-5.97 3.91 l
-5.97 3.90 l
-5.97 3.91 l
-5.97 3.90 l
-5.97 3.90 l
-5.97 3.91 l
-5.97 3.90 l
-5.97 3.91 l
-5.97 3.90 l
-5.96 3.90 l
-5.97 3.91 l
-5.97 3.90 l
-5.97 3.91 l
-5.97 3.90 l
-5.97 3.90 l
-5.97 3.91 l
0 0 l
o
np
410.80 306.66 m
-5.27 4.81 l
-5.27 4.80 l
-5.27 4.81 l
-5.27 4.80 l
-5.27 4.81 l
-5.27 4.80 l
-5.28 4.81 l
-5.27 4.80 l
-5.27 4.81 l
-5.27 4.81 l
-5.27 4.80 l
-5.27 4.81 l
-5.27 4.80 l
-5.27 4.81 l
-5.27 4.80 l
-5.27 4.81 l
-5.27 4.80 l
-5.28 4.81 l
-5.27 4.80 l
-5.27 4.81 l
-5.27 4.81 l
-5.27 4.80 l
-5.27 4.81 l
-5.27 4.80 l
-5.27 4.81 l
-5.27 4.80 l
-5.27 4.81 l
-5.27 4.80 l
-5.28 4.81 l
0 0 l
o
np
410.80 306.66 m
-4.65 5.41 l
-4.65 5.41 l
-4.65 5.40 l
-4.65 5.41 l
-4.65 5.41 l
-4.66 5.41 l
-4.65 5.40 l
-4.65 5.41 l
-4.65 5.41 l
-4.65 5.41 l
-4.65 5.40 l
-4.65 5.41 l
-4.65 5.41 l
-4.66 5.41 l
-4.65 5.40 l
-4.65 5.41 l
-4.65 5.41 l
-4.65 5.41 l
-4.65 5.40 l
-4.65 5.41 l
-4.65 5.41 l
-4.66 5.41 l
-4.65 5.40 l
-4.65 5.41 l
-4.65 5.41 l
-4.65 5.41 l
-4.65 5.40 l
-4.65 5.41 l
-4.65 5.41 l
0 0 l
o
np
410.80 306.66 m
-3.91 5.96 l
-3.92 5.96 l
-3.92 5.97 l
-3.91 5.96 l
-3.92 5.96 l
-3.91 5.96 l
-3.92 5.96 l
-3.91 5.96 l
-3.92 5.97 l
-3.92 5.96 l
-3.91 5.96 l
-3.92 5.96 l
-3.91 5.96 l
-3.92 5.96 l
-3.92 5.97 l
-3.91 5.96 l
-3.92 5.96 l
-3.91 5.96 l
-3.92 5.96 l
-3.91 5.96 l
-3.92 5.97 l
-3.92 5.96 l
-3.91 5.96 l
-3.92 5.96 l
-3.91 5.96 l
-3.92 5.96 l
-3.91 5.97 l
-3.92 5.96 l
-3.92 5.96 l
0 0 l
o
np
410.80 306.66 m
-3.31 6.32 l
-3.31 6.32 l
-3.31 6.32 l
-3.31 6.31 l
-3.31 6.32 l
-3.31 6.32 l
-3.31 6.32 l
-3.30 6.32 l
-3.31 6.32 l
-3.31 6.32 l
-3.31 6.31 l
-3.31 6.32 l
-3.31 6.32 l
-3.31 6.32 l
-3.31 6.32 l
-3.31 6.32 l
-3.31 6.31 l
-3.31 6.32 l
-3.31 6.32 l
-3.31 6.32 l
-3.31 6.32 l
-3.31 6.32 l
-3.31 6.31 l
-3.31 6.32 l
-3.31 6.32 l
-3.31 6.32 l
-3.30 6.32 l
-3.31 6.32 l
-3.31 6.31 l
0 0 l
o
np
410.80 306.66 m
-2.63 6.63 l
-2.62 6.63 l
-2.63 6.63 l
-2.63 6.63 l
-2.63 6.64 l
-2.63 6.63 l
-2.62 6.63 l
-2.63 6.63 l
-2.63 6.63 l
-2.63 6.63 l
-2.63 6.63 l
-2.62 6.63 l
-2.63 6.63 l
-2.63 6.63 l
-2.63 6.63 l
-2.63 6.64 l
-2.62 6.63 l
-2.63 6.63 l
-2.63 6.63 l
-2.63 6.63 l
-2.62 6.63 l
-2.63 6.63 l
-2.63 6.63 l
-2.63 6.63 l
-2.63 6.63 l
-2.62 6.63 l
-2.63 6.64 l
-2.63 6.63 l
-2.63 6.63 l
0 0 l
o
np
410.80 306.66 m
-0.42 7.12 l
-0.42 7.12 l
-0.42 7.12 l
-0.42 7.12 l
-0.42 7.12 l
-0.42 7.12 l
-0.42 7.12 l
-0.43 7.12 l
-0.42 7.12 l
-0.42 7.12 l
-0.42 7.12 l
-0.42 7.12 l
-0.42 7.12 l
-0.42 7.12 l
-0.42 7.12 l
-0.42 7.12 l
-0.42 7.13 l
-0.42 7.12 l
-0.42 7.12 l
-0.43 7.12 l
-0.42 7.12 l
-0.42 7.12 l
-0.42 7.12 l
-0.42 7.12 l
-0.42 7.12 l
-0.42 7.12 l
-0.42 7.12 l
-0.42 7.12 l
-0.42 7.12 l
o
np
410.80 426.24 m
7.02 -0.20 l
6.99 -0.62 l
6.95 -1.03 l
6.87 -1.43 l
6.78 -1.83 l
6.66 -2.23 l
6.51 -2.62 l
6.35 -2.99 l
6.17 -3.36 l
5.96 -3.72 l
5.72 -4.06 l
5.48 -4.39 l
5.22 -4.70 l
4.92 -5.00 l
4.63 -5.28 l
4.31 -5.55 l
3.97 -5.78 l
3.63 -6.01 l
3.27 -6.22 l
2.90 -6.39 l
2.52 -6.55 l
2.13 -6.69 l
1.74 -6.81 l
1.33 -6.89 l
0.92 -6.96 l
0.52 -7.00 l
0.10 -7.02 l
-0.31 -7.02 l
-0.72 -6.98 l
-1.13 -6.93 l
-1.53 -6.85 l
-1.93 -6.75 l
-2.33 -6.63 l
-2.71 -6.47 l
-3.09 -6.31 l
-3.45 -6.12 l
-3.80 -5.90 l
-4.14 -5.66 l
-4.47 -5.42 l
-4.78 -5.14 l
-5.08 -4.86 l
-5.34 -4.55 l
-5.61 -4.22 l
-5.85 -3.89 l
-6.06 -3.54 l
-6.26 -3.18 l
-6.44 -2.81 l
-6.59 -2.42 l
-6.72 -2.03 l
-6.82 -1.63 l
-6.92 -1.23 l
-6.97 -0.83 l
-7.01 -0.41 l
-7.02 0 l
-7.01 0.41 l
-6.97 0.83 l
-6.91 1.23 l
-6.83 1.63 l
-6.72 2.03 l
-6.59 2.42 l
-6.44 2.81 l
-6.26 3.18 l
-6.06 3.54 l
-5.85 3.89 l
-5.60 4.22 l
-5.35 4.55 l
-5.07 4.86 l
-4.78 5.14 l
-4.47 5.42 l
-4.15 5.66 l
-3.80 5.90 l
-3.45 6.12 l
-3.09 6.31 l
-2.71 6.47 l
-2.32 6.63 l
-1.94 6.75 l
-1.53 6.85 l
-1.13 6.93 l
-0.72 6.98 l
-0.31 7.02 l
0.10 7.02 l
0.52 7.00 l
0.92 6.96 l
1.34 6.89 l
1.73 6.81 l
2.13 6.69 l
2.52 6.55 l
2.90 6.39 l
3.27 6.22 l
3.63 6.01 l
3.97 5.78 l
4.31 5.55 l
4.63 5.28 l
4.93 5.00 l
5.21 4.70 l
5.48 4.39 l
5.73 4.06 l
5.95 3.72 l
6.17 3.36 l
363.02 416.28 lineto
6.52 2.62 l
6.65 2.23 l
6.78 1.83 l
6.87 1.43 l
6.95 1.03 l
6.99 0.62 l
7.02 0.20 l
0 0 l
o
np
410.80 445.28 m
7.02 -0.18 l
7.00 -0.53 l
6.97 -0.89 l
6.91 -1.24 l
6.85 -1.59 l
6.75 -1.93 l
6.64 -2.27 l
6.53 -2.61 l
6.38 -2.93 l
6.22 -3.25 l
6.05 -3.56 l
5.87 -3.87 l
5.66 -4.15 l
5.44 -4.44 l
5.21 -4.71 l
4.97 -4.97 l
4.71 -5.21 l
4.44 -5.44 l
4.15 -5.66 l
3.87 -5.87 l
3.56 -6.05 l
3.25 -6.22 l
2.93 -6.38 l
2.61 -6.53 l
2.27 -6.64 l
1.93 -6.75 l
1.59 -6.85 l
1.24 -6.91 l
0.89 -6.97 l
0.53 -7.00 l
0.18 -7.02 l
-0.18 -7.02 l
-0.53 -7.00 l
-0.89 -6.97 l
-1.24 -6.91 l
-1.59 -6.84 l
-1.93 -6.76 l
-2.27 -6.64 l
-2.61 -6.52 l
-2.93 -6.38 l
-3.25 -6.23 l
-3.56 -6.05 l
-3.87 -5.87 l
-4.15 -5.66 l
-4.44 -5.44 l
-4.71 -5.21 l
-4.97 -4.97 l
-5.21 -4.71 l
-5.44 -4.43 l
-5.66 -4.16 l
-5.87 -3.86 l
-6.05 -3.57 l
-6.22 -3.25 l
-6.38 -2.93 l
-6.53 -2.61 l
-6.64 -2.27 l
-6.75 -1.93 l
-6.85 -1.59 l
-6.91 -1.24 l
-6.97 -0.88 l
-7.00 -0.54 l
-7.02 -0.18 l
-7.02 0.18 l
-7.00 0.54 l
-6.97 0.88 l
-6.91 1.24 l
-6.84 1.59 l
-6.76 1.93 l
-6.64 2.27 l
-6.52 2.61 l
-6.38 2.93 l
-6.23 3.25 l
-6.05 3.57 l
-5.87 3.86 l
-5.66 4.16 l
-5.44 4.43 l
-5.21 4.71 l
-4.97 4.97 l
-4.71 5.21 l
-4.43 5.44 l
-4.16 5.66 l
-3.86 5.87 l
-3.57 6.05 l
-3.25 6.23 l
-2.93 6.38 l
-2.61 6.52 l
-2.27 6.64 l
-1.93 6.76 l
-1.59 6.84 l
-1.24 6.91 l
-0.88 6.97 l
-0.54 7.00 l
-0.18 7.02 l
0.18 7.02 l
0.54 7.00 l
0.88 6.97 l
1.24 6.91 l
1.59 6.85 l
1.93 6.75 l
280.81 354.80 lineto
2.61 6.53 l
2.93 6.38 l
3.25 6.22 l
3.57 6.05 l
3.86 5.87 l
4.16 5.66 l
4.43 5.44 l
4.71 5.21 l
4.97 4.97 l
5.21 4.71 l
5.44 4.44 l
5.66 4.15 l
5.87 3.87 l
6.05 3.56 l
6.23 3.25 l
6.38 2.93 l
6.52 2.61 l
6.64 2.27 l
6.76 1.93 l
6.84 1.59 l
6.91 1.24 l
6.97 0.89 l
7.00 0.53 l
7.02 0.18 l
0 0 l
o
np
410.80 464.31 m
7.02 -0.15 l
7.01 -0.47 l
6.98 -0.78 l
6.94 -1.10 l
6.89 -1.40 l
6.81 -1.70 l
6.73 -2.01 l
6.64 -2.30 l
6.53 -2.60 l
6.40 -2.88 l
6.27 -3.17 l
6.12 -3.45 l
5.97 -3.71 l
5.79 -3.98 l
5.61 -4.22 l
5.41 -4.48 l
5.21 -4.71 l
4.99 -4.94 l
4.77 -5.16 l
4.54 -5.36 l
4.29 -5.56 l
4.04 -5.75 l
3.78 -5.92 l
3.51 -6.08 l
3.24 -6.24 l
2.96 -6.37 l
2.67 -6.50 l
2.38 -6.61 l
2.08 -6.71 l
1.78 -6.79 l
1.47 -6.87 l
1.17 -6.93 l
0.86 -6.97 l
0.55 -7.00 l
0.23 -7.02 l
-0.08 -7.03 l
-0.39 -7.01 l
-0.70 -6.99 l
-1.01 -6.95 l
-1.33 -6.90 l
-1.63 -6.83 l
-1.93 -6.76 l
-2.23 -6.66 l
-2.52 -6.55 l
-2.82 -6.44 l
-3.09 -6.30 l
-3.38 -6.16 l
-3.65 -6.01 l
-3.91 -5.83 l
-4.16 -5.66 l
-4.42 -5.46 l
-4.65 -5.26 l
-4.89 -5.05 l
-5.10 -4.83 l
-5.31 -4.60 l
-5.52 -4.35 l
-5.70 -4.10 l
-5.88 -3.85 l
-6.04 -3.58 l
-6.20 -3.30 l
-6.34 -3.03 l
-6.46 -2.74 l
-6.59 -2.46 l
-6.68 -2.15 l
-6.78 -1.86 l
-6.85 -1.55 l
-6.91 -1.25 l
-6.96 -0.93 l
-7.00 -0.63 l
-7.02 -0.31 l
-7.02 0 l
-7.02 0.31 l
-7.00 0.63 l
-6.96 0.93 l
-6.91 1.25 l
-6.85 1.55 l
-6.78 1.86 l
-6.68 2.15 l
-6.58 2.46 l
-6.47 2.74 l
-6.34 3.03 l
-6.20 3.30 l
-6.04 3.58 l
-5.88 3.85 l
-5.70 4.10 l
-5.51 4.35 l
-5.32 4.60 l
-5.10 4.83 l
-4.89 5.05 l
-4.65 5.26 l
-4.41 5.46 l
-4.17 5.66 l
-3.91 5.83 l
-3.65 6.01 l
-3.37 6.16 l
-3.10 6.30 l
-2.82 6.44 l
-2.52 6.55 l
-2.23 6.66 l
258.30 266.71 lineto
-1.63 6.83 l
-1.32 6.90 l
-1.02 6.95 l
-0.70 6.99 l
-0.39 7.01 l
-0.08 7.03 l
0.24 7.02 l
0.54 7.00 l
0.86 6.97 l
1.17 6.93 l
1.48 6.87 l
1.78 6.79 l
2.08 6.71 l
2.38 6.61 l
2.67 6.50 l
2.95 6.37 l
3.24 6.24 l
3.51 6.08 l
3.78 5.92 l
4.04 5.75 l
4.29 5.56 l
4.54 5.36 l
4.77 5.16 l
4.99 4.94 l
5.21 4.71 l
5.42 4.48 l
5.61 4.22 l
5.79 3.98 l
5.96 3.71 l
6.12 3.45 l
6.27 3.17 l
6.41 2.88 l
6.52 2.60 l
6.64 2.30 l
6.73 2.01 l
6.82 1.70 l
6.88 1.40 l
6.94 1.10 l
6.98 0.78 l
7.01 0.47 l
7.02 0.15 l
o
/Font1 findfont 12 s
1 1 1 srgb
469.52 527.53 (1) .5 0 t
571.46 470.70 (2) .5 0 t
628.71 384.01 (3) .5 0 t
643.29 292.46 (4) .5 0 t
622.96 206.75 (5) .5 0 t
575.56 138.02 (6) .5 0 t
511.79 92.71 (7) .5 0 t
441.84 71.73 (8) .5 0 t
372.17 72.88 (9) .5 0 t
310.64 92.31 (10) .5 0 t
257.19 127.55 (11) .5 0 t
215.42 175.95 (12) .5 0 t
188.54 233.43 (13) .5 0 t
178.70 285.63 (14) .5 0 t
180.60 336.35 (15) .5 0 t
190.22 376.48 (16) .5 0 t
206.42 413.61 (17) .5 0 t
227.25 445.39 (18) .5 0 t
248.76 469.36 (19) .5 0 t
270.82 488.24 (20) .5 0 t
295.74 504.62 (21) .5 0 t
317.77 515.65 (22) .5 0 t
360.43 529.54 (X) .5 0 t
404.14 534.96 (Y) .5 0 t
0.4980 0.4980 0.4980 srgb
1.06 setlinewidth
[] 0 setdash
1 setlinecap
10.00 setmiterlimit
152.24 48.10 517.12 517.12 r p1
18.00 18.00 774.00 594.00 cl
18.00 18.00 774.00 594.00 cl
/bg { 0.8000 0.8000 0.8000 srgb } def
0.4980 0.4980 0.4980 srgb
1.06 setlinewidth
[] 0 setdash
1 setlinecap
1 setlinejoin
10.00 setmiterlimit
152.24 565.22 517.12 14.38 r p3
/Font1 findfont 10 s
0 0 0 srgb
410.80 568.82 (CTB9602) .5 0 t
18.00 18.00 774.00 594.00 cl
18.00 18.00 774.00 594.00 cl
18.00 18.00 774.00 594.00 cl
/Font1 findfont 10 s
1 1 1 srgb
145.16 422.65 (0.5) 1 0 t
145.16 441.69 (1.0) 1 0 t
145.16 460.72 (2.0) 1 0 t
18.00 18.00 774.00 594.00 cl
18.00 18.00 774.00 594.00 cl
0 0 0 srgb
1.06 setlinewidth
[] 0 setdash
0 setlinecap
1 setlinejoin
10.00 setmiterlimit
np
147.99 426.24 m
4.25 0 l
o
np
147.99 445.28 m
4.25 0 l
o
np
147.99 464.31 m
4.25 0 l
o
18.00 18.00 774.00 594.00 cl
18.00 18.00 774.00 594.00 cl
18.00 18.00 774.00 594.00 cl
18.00 18.00 774.00 594.00 cl
18.00 18.00 774.00 594.00 cl
18.00 18.00 774.00 594.00 cl
18.00 18.00 774.00 594.00 cl
18.00 18.00 774.00 594.00 cl
18.00 18.00 774.00 594.00 cl
18.00 18.00 774.00 594.00 cl
18.00 18.00 774.00 594.00 cl
18.00 18.00 774.00 594.00 cl
18.00 18.00 774.00 594.00 cl
/Font1 findfont 12 s
1 1 1 srgb
410.80 28.80 (abspos) .5 0 t
18.00 18.00 774.00 594.00 cl
18.00 18.00 774.00 594.00 cl
/Font1 findfont 12 s
1 1 1 srgb
127.66 294.99 (r) 90 ta
-0.120 (atio) tb gr
18.00 18.00 774.00 594.00 cl
18.00 18.00 774.00 594.00 cl
18.00 18.00 774.00 594.00 cl
18.00 18.00 774.00 594.00 cl
ep
%%Trailer
%%Pages: 1
%%EOF
